{
  "__type__": "cc.AnimationClip",
  "_name": "ive_idle_after_forward",
  "_objFlags": 0,
  "_native": "",
  "_duration": 0.016666666666666666,
  "sample": 60,
  "speed": 1,
  "wrapMode": 2,
  "curveData": {
    "comps": {
      "cc.Sprite": {
        "spriteFrame": [
          {
            "frame": 0,
            "value": {
              "__uuid__": "feb37f5b-fdf2-4962-b063-3fa6a7fbe4a1"
            }
          }
        ]
      }
    }
  },
  "events": []
}