{
  "__type__": "cc.AnimationClip",
  "_name": "ike_move_left",
  "_objFlags": 0,
  "_native": "",
  "_duration": 0.43333333333333335,
  "sample": 60,
  "speed": 1,
  "wrapMode": 2,
  "curveData": {
    "comps": {
      "cc.Sprite": {
        "spriteFrame": [
          {
            "frame": 0,
            "value": {
              "__uuid__": "cc208cd2-a629-48d0-a51d-3550efc98fee"
            }
          },
          {
            "frame": 0.08333333333333333,
            "value": {
              "__uuid__": "9b3a4e22-77ba-40c6-8a57-92e8d8923164"
            }
          },
          {
            "frame": 0.16666666666666666,
            "value": {
              "__uuid__": "ff07a7ff-eb1d-4b75-b00a-c43d5cada6a3"
            }
          },
          {
            "frame": 0.25,
            "value": {
              "__uuid__": "605ac923-d7a9-4d49-96c2-e6f45bbed892"
            }
          },
          {
            "frame": 0.3333333333333333,
            "value": {
              "__uuid__": "7ffe8b35-15da-4cde-8ca3-3625f4bec1e6"
            }
          },
          {
            "frame": 0.4166666666666667,
            "value": {
              "__uuid__": "cc208cd2-a629-48d0-a51d-3550efc98fee"
            }
          }
        ]
      }
    }
  },
  "events": []
}