{
  "__type__": "cc.AnimationClip",
  "_name": "boz_move_forward",
  "_objFlags": 0,
  "_native": "",
  "_duration": 0.43333333333333335,
  "sample": 60,
  "speed": 1,
  "wrapMode": 2,
  "curveData": {
    "comps": {
      "cc.Sprite": {
        "spriteFrame": [
          {
            "frame": 0,
            "value": {
              "__uuid__": "38bb46fd-17bd-485c-b6f3-91ddd70706fe"
            }
          },
          {
            "frame": 0.08333333333333333,
            "value": {
              "__uuid__": "33100507-7bff-4400-a264-902f3822f040"
            }
          },
          {
            "frame": 0.16666666666666666,
            "value": {
              "__uuid__": "958caed1-f335-49b3-93ca-6786443849c6"
            }
          },
          {
            "frame": 0.25,
            "value": {
              "__uuid__": "73d1b778-ecde-41b6-b9fc-f22287c55857"
            }
          },
          {
            "frame": 0.3333333333333333,
            "value": {
              "__uuid__": "6d677eb3-16d2-492d-8bcd-636ed439f5d3"
            }
          },
          {
            "frame": 0.4166666666666667,
            "value": {
              "__uuid__": "38bb46fd-17bd-485c-b6f3-91ddd70706fe"
            }
          }
        ]
      }
    }
  },
  "events": []
}