{
  "__type__": "cc.AnimationClip",
  "_name": "captain_move_left",
  "_objFlags": 0,
  "_native": "",
  "_duration": 0.43333333333333335,
  "sample": 60,
  "speed": 1,
  "wrapMode": 2,
  "curveData": {
    "comps": {
      "cc.Sprite": {
        "spriteFrame": [
          {
            "frame": 0,
            "value": {
              "__uuid__": "3e1d2a91-975a-4f5a-bd8b-2e771d078a79"
            }
          },
          {
            "frame": 0.08333333333333333,
            "value": {
              "__uuid__": "1e8d997e-4fa3-4cb1-9a06-14ded260e102"
            }
          },
          {
            "frame": 0.16666666666666666,
            "value": {
              "__uuid__": "42e346a3-56b2-41af-b1f4-1a4804c00285"
            }
          },
          {
            "frame": 0.25,
            "value": {
              "__uuid__": "f1de72b6-5898-4a23-8e49-96cde7684a16"
            }
          },
          {
            "frame": 0.3333333333333333,
            "value": {
              "__uuid__": "b70da269-cf9d-4983-916b-2d6054266e97"
            }
          },
          {
            "frame": 0.4166666666666667,
            "value": {
              "__uuid__": "3e1d2a91-975a-4f5a-bd8b-2e771d078a79"
            }
          }
        ]
      }
    }
  },
  "events": []
}