{
  "__type__": "cc.AnimationClip",
  "_name": "captain_idle_after_backward",
  "_objFlags": 0,
  "_native": "",
  "_duration": 0.016666666666666666,
  "sample": 60,
  "speed": 1,
  "wrapMode": 2,
  "curveData": {
    "comps": {
      "cc.Sprite": {
        "spriteFrame": [
          {
            "frame": 0,
            "value": {
              "__uuid__": "50b0dd40-82bf-4ab9-8e1f-c6321c92efb2"
            }
          }
        ]
      }
    }
  },
  "events": []
}